{"failedCount":1,"prefixedPath":"classpath:users\/get\/user-get.feature","packageQualifiedName":"users.get.user-get","loopIndex":-1,"relativePath":"users\/get\/user-get.feature","scenarioResults":[{"sectionIndex":0,"stepResults":[{"result":{"nanos":2183600,"millis":2.1836,"status":"passed"},"step":{"line":4,"prefix":"Given","index":0,"text":"url 'https:\/\/reqres.in\/api\/users\/2'"}},{"result":{"nanos":992589600,"millis":992.5896,"status":"passed"},"step":{"line":5,"prefix":"When","index":1,"text":"method get"},"stepLog":"11:12:13.786 request:\n1 > GET https:\/\/reqres.in\/api\/users\/2\n1 > Host: reqres.in\n1 > Connection: Keep-Alive\n1 > User-Agent: Apache-HttpClient\/4.5.13 (Java\/17.0.9)\n1 > Accept-Encoding: gzip,deflate\n\n\n11:12:14.507 response time in milliseconds: 718\n1 < 200\n1 < Date: Tue, 31 Oct 2023 16:12:14 GMT\n1 < Content-Type: application\/json; charset=utf-8\n1 < Transfer-Encoding: chunked\n1 < Connection: keep-alive\n1 < X-Powered-By: Express\n1 < Access-Control-Allow-Origin: *\n1 < Etag: W\/\"118-pbdwwFo9SKNhD3Lx5iHJyngpq00\"\n1 < Via: 1.1 vegur\n1 < Cache-Control: max-age=14400\n1 < CF-Cache-Status: HIT\n1 < Age: 5545\n1 < Report-To: {\"endpoints\":[{\"url\":\"https:\\\/\\\/a.nel.cloudflare.com\\\/report\\\/v3?s=xcAnyZozHTxR1LUbVvZgNH2tTsEKnwiaj9y%2F89%2FNxFCKj8E67ja4TS20y6lEiBj37S5bQrleJkqz%2F4QdWhEz2ui0PKWO8Ko82unq9srSLBU1S8jJOG1iIPBaFA%3D%3D\"}],\"group\":\"cf-nel\",\"max_age\":604800}\n1 < NEL: {\"success_fraction\":0,\"report_to\":\"cf-nel\",\"max_age\":604800}\n1 < Vary: Accept-Encoding\n1 < Server: cloudflare\n1 < CF-RAY: 81ed2dae3a4f8de4-MIA\n{\"data\":{\"id\":2,\"email\":\"janet.weaver@reqres.in\",\"first_name\":\"Janet\",\"last_name\":\"Weaver\",\"avatar\":\"https:\/\/reqres.in\/img\/faces\/2-image.jpg\"},\"support\":{\"url\":\"https:\/\/reqres.in\/#support-heading\",\"text\":\"To keep ReqRes free, contributions towards server costs are appreciated!\"}}\n\n"},{"result":{"nanos":114100,"errorMessage":"status code was: 200, expected: 400, response time in milliseconds: 718, url: https:\/\/reqres.in\/api\/users\/2, response: \n{\"data\":{\"id\":2,\"email\":\"janet.weaver@reqres.in\",\"first_name\":\"Janet\",\"last_name\":\"Weaver\",\"avatar\":\"https:\/\/reqres.in\/img\/faces\/2-image.jpg\"},\"support\":{\"url\":\"https:\/\/reqres.in\/#support-heading\",\"text\":\"To keep ReqRes free, contributions towards server costs are appreciated!\"}}\nclasspath:users\/get\/user-get.feature:6","millis":0.1141,"status":"failed"},"step":{"line":6,"prefix":"Then","index":2,"text":"status 400"},"stepLog":"11:12:14.509 classpath:users\/get\/user-get.feature:6\nThen status 400\nstatus code was: 200, expected: 400, response time in milliseconds: 718, url: https:\/\/reqres.in\/api\/users\/2, response: \n{\"data\":{\"id\":2,\"email\":\"janet.weaver@reqres.in\",\"first_name\":\"Janet\",\"last_name\":\"Weaver\",\"avatar\":\"https:\/\/reqres.in\/img\/faces\/2-image.jpg\"},\"support\":{\"url\":\"https:\/\/reqres.in\/#support-heading\",\"text\":\"To keep ReqRes free, contributions towards server costs are appreciated!\"}}\nclasspath:users\/get\/user-get.feature:6\n"}],"line":3,"description":"","durationMillis":994.8873,"failed":true,"error":"status code was: 200, expected: 400, response time in milliseconds: 718, url: https:\/\/reqres.in\/api\/users\/2, response: \n{\"data\":{\"id\":2,\"email\":\"janet.weaver@reqres.in\",\"first_name\":\"Janet\",\"last_name\":\"Weaver\",\"avatar\":\"https:\/\/reqres.in\/img\/faces\/2-image.jpg\"},\"support\":{\"url\":\"https:\/\/reqres.in\/#support-heading\",\"text\":\"To keep ReqRes free, contributions towards server costs are appreciated!\"}}\nclasspath:users\/get\/user-get.feature:6","executorName":"pool-1-thread-2","name":"Get a user","startTime":1698768733501,"refId":"[1:3]","endTime":1698768734509,"exampleIndex":-1},{"sectionIndex":1,"stepResults":[{"result":{"nanos":71766100,"millis":71.7661,"status":"passed"},"step":{"line":9,"prefix":"*","index":0,"text":"def jsonResponse = read('..\/json\/list_of_user.json')"}},{"result":{"nanos":718100,"millis":0.7181,"status":"passed"},"step":{"line":10,"prefix":"Given","index":1,"text":"url 'https:\/\/reqres.in\/api\/users?page=1'"}},{"result":{"nanos":946062100,"millis":946.0621,"status":"passed"},"step":{"line":11,"prefix":"When","index":2,"text":"method get"},"stepLog":"11:12:13.786 request:\n1 > GET https:\/\/reqres.in\/api\/users?page=1\n1 > Host: reqres.in\n1 > Connection: Keep-Alive\n1 > User-Agent: Apache-HttpClient\/4.5.13 (Java\/17.0.9)\n1 > Accept-Encoding: gzip,deflate\n\n\n11:12:14.530 response time in milliseconds: 742\n1 < 200\n1 < Date: Tue, 31 Oct 2023 16:12:14 GMT\n1 < Content-Type: application\/json; charset=utf-8\n1 < Transfer-Encoding: chunked\n1 < Connection: keep-alive\n1 < Report-To: {\"group\":\"heroku-nel\",\"max_age\":3600,\"endpoints\":[{\"url\":\"https:\/\/nel.heroku.com\/reports?ts=1698761778&sid=c4c9725f-1ab0-44d8-820f-430df2718e11&s=7aDpL0V4TXLwcgKe5SCmUYLf3bSlTHB0u%2FXwhuCgJDE%3D\"}]}\n1 < Reporting-Endpoints: heroku-nel=https:\/\/nel.heroku.com\/reports?ts=1698761778&sid=c4c9725f-1ab0-44d8-820f-430df2718e11&s=7aDpL0V4TXLwcgKe5SCmUYLf3bSlTHB0u%2FXwhuCgJDE%3D\n1 < Nel: {\"report_to\":\"heroku-nel\",\"max_age\":3600,\"success_fraction\":0.005,\"failure_fraction\":0.05,\"response_headers\":[\"Via\"]}\n1 < X-Powered-By: Express\n1 < Access-Control-Allow-Origin: *\n1 < Etag: W\/\"3e4-2RLXvr5wTg9YQ6aH95CkYoFNuO8\"\n1 < Via: 1.1 vegur\n1 < Cache-Control: max-age=14400\n1 < CF-Cache-Status: HIT\n1 < Age: 6956\n1 < Vary: Accept-Encoding\n1 < Server: cloudflare\n1 < CF-RAY: 81ed2dae3bef67ce-MIA\n{\"page\":1,\"per_page\":6,\"total\":12,\"total_pages\":2,\"data\":[{\"id\":1,\"email\":\"george.bluth@reqres.in\",\"first_name\":\"George\",\"last_name\":\"Bluth\",\"avatar\":\"https:\/\/reqres.in\/img\/faces\/1-image.jpg\"},{\"id\":2,\"email\":\"janet.weaver@reqres.in\",\"first_name\":\"Janet\",\"last_name\":\"Weaver\",\"avatar\":\"https:\/\/reqres.in\/img\/faces\/2-image.jpg\"},{\"id\":3,\"email\":\"emma.wong@reqres.in\",\"first_name\":\"Emma\",\"last_name\":\"Wong\",\"avatar\":\"https:\/\/reqres.in\/img\/faces\/3-image.jpg\"},{\"id\":4,\"email\":\"eve.holt@reqres.in\",\"first_name\":\"Eve\",\"last_name\":\"Holt\",\"avatar\":\"https:\/\/reqres.in\/img\/faces\/4-image.jpg\"},{\"id\":5,\"email\":\"charles.morris@reqres.in\",\"first_name\":\"Charles\",\"last_name\":\"Morris\",\"avatar\":\"https:\/\/reqres.in\/img\/faces\/5-image.jpg\"},{\"id\":6,\"email\":\"tracey.ramos@reqres.in\",\"first_name\":\"Tracey\",\"last_name\":\"Ramos\",\"avatar\":\"https:\/\/reqres.in\/img\/faces\/6-image.jpg\"}],\"support\":{\"url\":\"https:\/\/reqres.in\/#support-heading\",\"text\":\"To keep ReqRes free, contributions towards server costs are appreciated!\"}}\n\n"},{"result":{"nanos":11100,"millis":0.0111,"status":"passed"},"step":{"line":12,"prefix":"Then","index":3,"text":"status 200"}},{"result":{"nanos":18337000,"millis":18.337,"status":"passed"},"step":{"line":13,"prefix":"And","index":4,"text":"match  $ == {\"page\":1,\"per_page\":6,\"total\":12,\"total_pages\":2,\"data\":[{\"id\":1,\"email\":\"george.bluth@reqres.in\",\"first_name\":\"George\",\"last_name\":\"Bluth\",\"avatar\":\"https:\/\/reqres.in\/img\/faces\/1-image.jpg\"},{\"id\":2,\"email\":\"janet.weaver@reqres.in\",\"first_name\":\"Janet\",\"last_name\":\"Weaver\",\"avatar\":\"https:\/\/reqres.in\/img\/faces\/2-image.jpg\"},{\"id\":3,\"email\":\"emma.wong@reqres.in\",\"first_name\":\"Emma\",\"last_name\":\"Wong\",\"avatar\":\"https:\/\/reqres.in\/img\/faces\/3-image.jpg\"},{\"id\":4,\"email\":\"eve.holt@reqres.in\",\"first_name\":\"Eve\",\"last_name\":\"Holt\",\"avatar\":\"https:\/\/reqres.in\/img\/faces\/4-image.jpg\"},{\"id\":5,\"email\":\"charles.morris@reqres.in\",\"first_name\":\"Charles\",\"last_name\":\"Morris\",\"avatar\":\"https:\/\/reqres.in\/img\/faces\/5-image.jpg\"},{\"id\":6,\"email\":\"tracey.ramos@reqres.in\",\"first_name\":\"Tracey\",\"last_name\":\"Ramos\",\"avatar\":\"https:\/\/reqres.in\/img\/faces\/6-image.jpg\"}],\"support\":{\"url\":\"https:\/\/reqres.in\/#support-heading\",\"text\":\"To keep ReqRes free, contributions towards server costs are appreciated!\"}}"}},{"result":{"nanos":725300,"millis":0.7253,"status":"passed"},"step":{"line":14,"prefix":"And","index":5,"text":"match $ == jsonResponse"}},{"result":{"nanos":2045800,"millis":2.0458,"status":"passed"},"step":{"line":15,"prefix":"And","index":6,"text":"match $ == read('..\/json\/list_of_user.json')"}}],"executorName":"pool-1-thread-3","line":8,"name":"Get list a user","description":"","durationMillis":1039.6655,"startTime":1698768733501,"failed":false,"refId":"[2:8]","endTime":1698768734553,"exampleIndex":-1}],"callDepth":0,"name":"Get user on regres","description":"","resultDate":"2023-10-31 11:12:16 a. m.","durationMillis":2034.5528,"passedCount":1}